C-UnidadeLogicaAritmetica/teste_cocotb/waves/alu.vcd
$date
  Fri Sep 23 22:50:10 2022
$end
$version
  GHDL v0
$end
$timescale
  1 fs
$end
$scope module standard $end
$upscope $end
$scope module std_logic_1164 $end
$upscope $end
$scope module alu $end
$var reg 16 ! x[15:0] $end
$var reg 16 " y[15:0] $end
$var reg 1 # zx $end
$var reg 1 $ nx $end
$var reg 1 % zy $end
$var reg 1 & ny $end
$var reg 1 ' f $end
$var reg 1 ( no $end
$var reg 1 ) zr $end
$var reg 1 * ng $end
$var reg 16 + saida[15:0] $end
$var reg 16 , zxout[15:0] $end
$var reg 16 - zyout[15:0] $end
$var reg 16 . nxout[15:0] $end
$var reg 16 / nyout[15:0] $end
$var reg 16 0 andout[15:0] $end
$var reg 16 1 adderout[15:0] $end
$var reg 16 2 muxout[15:0] $end
$var reg 16 3 precomp[15:0] $end
$scope module zerador_x $end
$var reg 1 4 z $end
$var reg 16 5 a[15:0] $end
$var reg 16 6 y[15:0] $end
$upscope $end
$scope module zerador_y $end
$var reg 1 7 z $end
$var reg 16 8 a[15:0] $end
$var reg 16 9 y[15:0] $end
$upscope $end
$scope module inversor_x $end
$var reg 1 : z $end
$var reg 16 ; a[15:0] $end
$var reg 16 < y[15:0] $end
$upscope $end
$scope module inversor_y $end
$var reg 1 = z $end
$var reg 16 > a[15:0] $end
$var reg 16 ? y[15:0] $end
$upscope $end
$scope module and_x_y $end
$var reg 16 @ a[15:0] $end
$var reg 16 A b[15:0] $end
$var reg 16 B q[15:0] $end
$upscope $end
$scope module add_x_y $end
$var reg 16 C a[15:0] $end
$var reg 16 D b[15:0] $end
$var reg 16 E q[15:0] $end
$var reg 15 F carry[14:0] $end
$scope module soma0 $end
$var reg 1 G a $end
$var reg 1 H b $end
$var reg 1 I c $end
$var reg 1 J soma $end
$var reg 1 K vaium $end
$upscope $end
$scope module soma1 $end
$var reg 1 L a $end
$var reg 1 M b $end
$var reg 1 N c $end
$var reg 1 O soma $end
$var reg 1 P vaium $end
$upscope $end
$scope module soma2 $end
$var reg 1 Q a $end
$var reg 1 R b $end
$var reg 1 S c $end
$var reg 1 T soma $end
$var reg 1 U vaium $end
$upscope $end
$scope module soma3 $end
$var reg 1 V a $end
$var reg 1 W b $end
$var reg 1 X c $end
$var reg 1 Y soma $end
$var reg 1 Z vaium $end
$upscope $end
$scope module soma4 $end
$var reg 1 [ a $end
$var reg 1 \ b $end
$var reg 1 ] c $end
$var reg 1 ^ soma $end
$var reg 1 _ vaium $end
$upscope $end
$scope module soma5 $end
$var reg 1 ` a $end
$var reg 1 a b $end
$var reg 1 b c $end
$var reg 1 c soma $end
$var reg 1 d vaium $end
$upscope $end
$scope module soma6 $end
$var reg 1 e a $end
$var reg 1 f b $end
$var reg 1 g c $end
$var reg 1 h soma $end
$var reg 1 i vaium $end
$upscope $end
$scope module soma7 $end
$var reg 1 j a $end
$var reg 1 k b $end
$var reg 1 l c $end
$var reg 1 m soma $end
$var reg 1 n vaium $end
$upscope $end
$scope module soma8 $end
$var reg 1 o a $end
$var reg 1 p b $end
$var reg 1 q c $end
$var reg 1 r soma $end
$var reg 1 s vaium $end
$upscope $end
$scope module soma9 $end
$var reg 1 t a $end
$var reg 1 u b $end
$var reg 1 v c $end
$var reg 1 w soma $end
$var reg 1 x vaium $end
$upscope $end
$scope module soma10 $end
$var reg 1 y a $end
$var reg 1 z b $end
$var reg 1 { c $end
$var reg 1 | soma $end
$var reg 1 } vaium $end
$upscope $end
$scope module soma11 $end
$var reg 1 !" a $end
$var reg 1 "" b $end
$var reg 1 #" c $end
$var reg 1 $" soma $end
$var reg 1 %" vaium $end
$upscope $end
$scope module soma12 $end
$var reg 1 &" a $end
$var reg 1 '" b $end
$var reg 1 (" c $end
$var reg 1 )" soma $end
$var reg 1 *" vaium $end
$upscope $end
$scope module soma13 $end
$var reg 1 +" a $end
$var reg 1 ," b $end
$var reg 1 -" c $end
$var reg 1 ." soma $end
$var reg 1 /" vaium $end
$upscope $end
$scope module soma14 $end
$var reg 1 0" a $end
$var reg 1 1" b $end
$var reg 1 2" c $end
$var reg 1 3" soma $end
$var reg 1 4" vaium $end
$upscope $end
$scope module soma15 $end
$var reg 1 5" a $end
$var reg 1 6" b $end
$var reg 1 7" c $end
$var reg 1 8" soma $end
$var reg 1 9" vaium $end
$upscope $end
$upscope $end
$scope module mux_x_y $end
$var reg 16 :" a[15:0] $end
$var reg 16 ;" b[15:0] $end
$var reg 1 <" sel $end
$var reg 16 =" q[15:0] $end
$upscope $end
$scope module inversor_out $end
$var reg 1 >" z $end
$var reg 16 ?" a[15:0] $end
$var reg 16 @" y[15:0] $end
$upscope $end
$scope module comparador_out $end
$var reg 16 A" a[15:0] $end
$var reg 1 B" zr $end
$var reg 1 C" ng $end
$upscope $end
$upscope $end
$enddefinitions $end
#0
b0000000000000000 !
b1111111111111111 "
1#
0$
1%
0&
1'
0(
1)
0*
b0000000000000000 +
b0000000000000000 ,
b0000000000000000 -
b0000000000000000 .
b0000000000000000 /
b0000000000000000 0
b0000000000000000 1
b0000000000000000 2
b0000000000000000 3
14
b0000000000000000 5
b0000000000000000 6
17
b1111111111111111 8
b0000000000000000 9
0:
b0000000000000000 ;
b0000000000000000 <
0=
b0000000000000000 >
b0000000000000000 ?
b0000000000000000 @
b0000000000000000 A
b0000000000000000 B
b0000000000000000 C
b0000000000000000 D
b0000000000000000 E
b000000000000000 F
0G
0H
0I
0J
0K
0L
0M
0N
0O
0P
0Q
0R
0S
0T
0U
0V
0W
0X
0Y
0Z
0[
0\
0]
0^
0_
0`
0a
0b
0c
0d
0e
0f
0g
0h
0i
0j
0k
0l
0m
0n
0o
0p
0q
0r
0s
0t
0u
0v
0w
0x
0y
0z
0{
0|
0}
0!"
0""
0#"
0$"
0%"
0&"
0'"
0("
0)"
0*"
0+"
0,"
0-"
0."
0/"
00"
01"
02"
03"
04"
05"
06"
07"
08"
09"
b0000000000000000 :"
b0000000000000000 ;"
1<"
b0000000000000000 ="
0>"
b0000000000000000 ?"
b0000000000000000 @"
b0000000000000000 A"
1B"
0C"
#1000000
#2000000
1$
1&
1(
0)
0*
b0000000000000001 +
b1111111111111111 .
b1111111111111111 /
b1111111111111111 0
b1111111111111110 1
b1111111111111110 2
b0000000000000001 3
1:
b1111111111111111 <
1=
b1111111111111111 ?
b1111111111111111 @
b1111111111111111 A
b1111111111111111 B
b1111111111111111 C
b1111111111111111 D
b1111111111111110 E
b111111111111111 F
1G
1H
1K
1L
1M
1N
1O
1P
1Q
1R
1S
1T
1U
1V
1W
1X
1Y
1Z
1[
1\
1]
1^
1_
1`
1a
1b
1c
1d
1e
1f
1g
1h
1i
1j
1k
1l
1m
1n
1o
1p
1q
1r
1s
1t
1u
1v
1w
1x
1y
1z
1{
1|
1}
1!"
1""
1#"
1$"
1%"
1&"
1'"
1("
1)"
1*"
1+"
1,"
1-"
1."
1/"
10"
11"
12"
13"
14"
15"
16"
17"
18"
19"
b1111111111111111 :"
b1111111111111110 ;"
b1111111111111110 ="
1>"
b1111111111111110 ?"
b0000000000000001 @"
b0000000000000001 A"
0B"
0C"
#3000000
#4000000
0&
0(
1*
b1111111111111111 +
b0000000000000000 /
b0000000000000000 0
b1111111111111111 1
b1111111111111111 2
b1111111111111111 3
0=
b0000000000000000 ?
b0000000000000000 A
b0000000000000000 B
b0000000000000000 D
b1111111111111111 E
b000000000000000 F
0H
1J
0K
0M
0N
1O
0P
0R
0S
1T
0U
0W
0X
1Y
0Z
0\
0]
1^
0_
0a
0b
1c
0d
0f
0g
1h
0i
0k
0l
1m
0n
0p
0q
1r
0s
0u
0v
1w
0x
0z
0{
1|
0}
0""
0#"
1$"
0%"
0'"
0("
1)"
0*"
0,"
0-"
1."
0/"
01"
02"
13"
04"
06"
07"
18"
09"
b0000000000000000 :"
b1111111111111111 ;"
b1111111111111111 ="
0>"
b1111111111111111 ?"
b1111111111111111 @"
b1111111111111111 A"
1C"
#5000000
#6000000
0#
0$
1&
0'
1)
0*
b0000000000000000 +
b0000000000000000 .
b1111111111111111 /
b0000000000000000 2
b0000000000000000 3
04
0:
b0000000000000000 <
1=
b1111111111111111 ?
b0000000000000000 @
b1111111111111111 A
b0000000000000000 C
b1111111111111111 D
0G
1H
0L
1M
0Q
1R
0V
1W
0[
1\
0`
1a
0e
1f
0j
1k
0o
1p
0t
1u
0y
1z
0!"
1""
0&"
1'"
0+"
1,"
00"
11"
05"
16"
0<"
b0000000000000000 ="
b0000000000000000 ?"
b0000000000000000 @"
b0000000000000000 A"
1B"
0C"
#7000000
#8000000
1#
1$
0%
0&
0)
1*
b1111111111111111 +
b1111111111111111 -
b1111111111111111 .
b1111111111111111 /
b1111111111111111 0
b1111111111111110 1
b1111111111111111 2
b1111111111111111 3
14
07
b1111111111111111 9
1:
b1111111111111111 <
0=
b1111111111111111 >
b1111111111111111 ?
b1111111111111111 @
b1111111111111111 A
b1111111111111111 B
b1111111111111111 C
b1111111111111111 D
b1111111111111110 E
b111111111111111 F
1G
1H
0J
1K
1L
1M
1N
1O
1P
1Q
1R
1S
1T
1U
1V
1W
1X
1Y
1Z
1[
1\
1]
1^
1_
1`
1a
1b
1c
1d
1e
1f
1g
1h
1i
1j
1k
1l
1m
1n
1o
1p
1q
1r
1s
1t
1u
1v
1w
1x
1y
1z
1{
1|
1}
1!"
1""
1#"
1$"
1%"
1&"
1'"
1("
1)"
1*"
1+"
1,"
1-"
1."
1/"
10"
11"
12"
13"
14"
15"
16"
17"
18"
19"
b1111111111111111 :"
b1111111111111110 ;"
b1111111111111111 ="
b1111111111111111 ?"
b1111111111111111 @"
b1111111111111111 A"
0B"
1C"
#9000000
#10000000
0#
0$
1%
1&
1(
0)
1*
b1111111111111111 +
b0000000000000000 -
b0000000000000000 .
b1111111111111111 /
b0000000000000000 0
b1111111111111111 1
b0000000000000000 2
b1111111111111111 3
04
17
b0000000000000000 9
0:
b0000000000000000 <
1=
b0000000000000000 >
b1111111111111111 ?
b0000000000000000 @
b1111111111111111 A
b0000000000000000 B
b0000000000000000 C
b1111111111111111 D
b1111111111111111 E
b000000000000000 F
0G
1H
1J
0K
0L
1M
0N
0P
0Q
1R
0S
0U
0V
1W
0X
0Z
0[
1\
0]
0_
0`
1a
0b
0d
0e
1f
0g
0i
0j
1k
0l
0n
0o
1p
0q
0s
0t
1u
0v
0x
0y
1z
0{
0}
0!"
1""
0#"
0%"
0&"
1'"
0("
0*"
0+"
1,"
0-"
0/"
00"
11"
02"
04"
05"
16"
07"
09"
b0000000000000000 :"
b1111111111111111 ;"
b0000000000000000 ="
1>"
b0000000000000000 ?"
b1111111111111111 @"
b1111111111111111 A"
0B"
1C"
#11000000
#12000000
1#
1$
0%
0&
1)
0*
b0000000000000000 +
b1111111111111111 -
b1111111111111111 .
b1111111111111111 /
b1111111111111111 0
b1111111111111110 1
b1111111111111111 2
b0000000000000000 3
14
07
b1111111111111111 9
1:
b1111111111111111 <
0=
b1111111111111111 >
b1111111111111111 ?
b1111111111111111 @
b1111111111111111 A
b1111111111111111 B
b1111111111111111 C
b1111111111111111 D
b1111111111111110 E
b111111111111111 F
1G
1H
0J
1K
1L
1M
1N
1O
1P
1Q
1R
1S
1T
1U
1V
1W
1X
1Y
1Z
1[
1\
1]
1^
1_
1`
1a
1b
1c
1d
1e
1f
1g
1h
1i
1j
1k
1l
1m
1n
1o
1p
1q
1r
1s
1t
1u
1v
1w
1x
1y
1z
1{
1|
1}
1!"
1""
1#"
1$"
1%"
1&"
1'"
1("
1)"
1*"
1+"
1,"
1-"
1."
1/"
10"
11"
12"
13"
14"
15"
16"
17"
18"
19"
b1111111111111111 :"
b1111111111111110 ;"
b1111111111111111 ="
b1111111111111111 ?"
b0000000000000000 @"
b0000000000000000 A"
1B"
0C"
#13000000
#14000000
0#
0$
1%
1&
1'
1)
b0000000000000000 +
b0000000000000000 -
b0000000000000000 .
b1111111111111111 /
b0000000000000000 0
b1111111111111111 1
b1111111111111111 2
b0000000000000000 3
04
17
b0000000000000000 9
0:
b0000000000000000 <
1=
b0000000000000000 >
b1111111111111111 ?
b0000000000000000 @
b1111111111111111 A
b0000000000000000 B
b0000000000000000 C
b1111111111111111 D
b1111111111111111 E
b000000000000000 F
0G
1H
1J
0K
0L
1M
0N
0P
0Q
1R
0S
0U
0V
1W
0X
0Z
0[
1\
0]
0_
0`
1a
0b
0d
0e
1f
0g
0i
0j
1k
0l
0n
0o
1p
0q
0s
0t
1u
0v
0x
0y
1z
0{
0}
0!"
1""
0#"
0%"
0&"
1'"
0("
0*"
0+"
1,"
0-"
0/"
00"
11"
02"
04"
05"
16"
07"
09"
b0000000000000000 :"
b1111111111111111 ;"
1<"
b1111111111111111 ="
b1111111111111111 ?"
b0000000000000000 @"
b0000000000000000 A"
1B"
#15000000
#16000000
1#
1$
0%
0&
0)
0*
b0000000000000001 +
b1111111111111111 -
b1111111111111111 .
b1111111111111111 /
b1111111111111111 0
b1111111111111110 1
b1111111111111110 2
b0000000000000001 3
14
07
b1111111111111111 9
1:
b1111111111111111 <
0=
b1111111111111111 >
b1111111111111111 ?
b1111111111111111 @
b1111111111111111 A
b1111111111111111 B
b1111111111111111 C
b1111111111111111 D
b1111111111111110 E
b111111111111111 F
1G
1H
0J
1K
1L
1M
1N
1O
1P
1Q
1R
1S
1T
1U
1V
1W
1X
1Y
1Z
1[
1\
1]
1^
1_
1`
1a
1b
1c
1d
1e
1f
1g
1h
1i
1j
1k
1l
1m
1n
1o
1p
1q
1r
1s
1t
1u
1v
1w
1x
1y
1z
1{
1|
1}
1!"
1""
1#"
1$"
1%"
1&"
1'"
1("
1)"
1*"
1+"
1,"
1-"
1."
1/"
10"
11"
12"
13"
14"
15"
16"
17"
18"
19"
b1111111111111111 :"
b1111111111111110 ;"
b1111111111111110 ="
b1111111111111110 ?"
b0000000000000001 @"
b0000000000000001 A"
0B"
0C"
#17000000
#18000000
0#
1%
1&
0*
b0000000000000001 +
b0000000000000000 -
b1111111111111111 /
b1111111111111111 0
b1111111111111110 1
b1111111111111110 2
b0000000000000001 3
04
17
b0000000000000000 9
1=
b0000000000000000 >
b1111111111111111 ?
b1111111111111111 A
b1111111111111111 B
b1111111111111111 D
b1111111111111110 E
b111111111111111 F
1H
0J
1K
1M
1N
1O
1R
1T
1W
1Y
1\
1^
1a
1c
1f
1h
1k
1m
1p
1r
1u
1w
1z
1|
1""
1$"
1'"
1)"
1,"
1."
11"
13"
16"
18"
b1111111111111111 :"
b1111111111111110 ;"
b1111111111111110 ="
b1111111111111110 ?"
b0000000000000001 @"
b0000000000000001 A"
0C"
#19000000
#20000000
1#
0%
1)
0*
b0000000000000000 +
b1111111111111111 -
b0000000000000000 /
b0000000000000000 0
b1111111111111111 1
b1111111111111111 2
b0000000000000000 3
14
07
b1111111111111111 9
b1111111111111111 >
b0000000000000000 ?
b0000000000000000 A
b0000000000000000 B
b0000000000000000 D
b1111111111111111 E
b000000000000000 F
0H
1J
0K
0M
0N
1O
0P
0R
0S
1T
0U
0W
0X
1Y
0Z
0\
0]
1^
0_
0a
0b
1c
0d
0f
0g
1h
0i
0k
0l
1m
0n
0p
0q
1r
0s
0u
0v
1w
0x
0z
0{
1|
0}
0""
0#"
1$"
0%"
0'"
0("
1)"
0*"
0,"
0-"
1."
0/"
01"
02"
13"
04"
06"
07"
18"
09"
b0000000000000000 :"
b1111111111111111 ;"
b1111111111111111 ="
b1111111111111111 ?"
b0000000000000000 @"
b0000000000000000 A"
1B"
0C"
#21000000
#22000000
0#
0$
1%
0(
0)
1*
b1111111111111111 +
b0000000000000000 -
b0000000000000000 .
b1111111111111111 /
b1111111111111111 1
b1111111111111111 2
b1111111111111111 3
04
17
b0000000000000000 9
0:
b0000000000000000 <
b0000000000000000 >
b1111111111111111 ?
b0000000000000000 @
b1111111111111111 A
b0000000000000000 C
b1111111111111111 D
b1111111111111111 E
0G
1H
1J
0L
1M
1O
0Q
1R
1T
0V
1W
1Y
0[
1\
1^
0`
1a
1c
0e
1f
1h
0j
1k
1m
0o
1p
1r
0t
1u
1w
0y
1z
1|
0!"
1""
1$"
0&"
1'"
1)"
0+"
1,"
1."
00"
11"
13"
05"
16"
18"
b1111111111111111 ;"
b1111111111111111 ="
0>"
b1111111111111111 ?"
b1111111111111111 @"
b1111111111111111 A"
0B"
1C"
#23000000
#24000000
1#
1$
0%
0&
0)
1*
b1111111111111110 +
b1111111111111111 -
b1111111111111111 .
b1111111111111111 /
b1111111111111111 0
b1111111111111110 1
b1111111111111110 2
b1111111111111110 3
14
07
b1111111111111111 9
1:
b1111111111111111 <
0=
b1111111111111111 >
b1111111111111111 ?
b1111111111111111 @
b1111111111111111 A
b1111111111111111 B
b1111111111111111 C
b1111111111111111 D
b1111111111111110 E
b111111111111111 F
1G
1H
0J
1K
1L
1M
1N
1O
1P
1Q
1R
1S
1T
1U
1V
1W
1X
1Y
1Z
1[
1\
1]
1^
1_
1`
1a
1b
1c
1d
1e
1f
1g
1h
1i
1j
1k
1l
1m
1n
1o
1p
1q
1r
1s
1t
1u
1v
1w
1x
1y
1z
1{
1|
1}
1!"
1""
1#"
1$"
1%"
1&"
1'"
1("
1)"
1*"
1+"
1,"
1-"
1."
1/"
10"
11"
12"
13"
14"
15"
16"
17"
18"
19"
b1111111111111111 :"
b1111111111111110 ;"
b1111111111111110 ="
b1111111111111110 ?"
b1111111111111110 @"
b1111111111111110 A"
0B"
1C"
#25000000
#26000000
0#
0$
1*
b1111111111111111 +
b0000000000000000 .
b0000000000000000 0
b1111111111111111 1
b1111111111111111 2
b1111111111111111 3
04
0:
b0000000000000000 <
b0000000000000000 @
b0000000000000000 B
b0000000000000000 C
b1111111111111111 E
b000000000000000 F
0G
1J
0K
0L
0N
1O
0P
0Q
0S
1T
0U
0V
0X
1Y
0Z
0[
0]
1^
0_
0`
0b
1c
0d
0e
0g
1h
0i
0j
0l
1m
0n
0o
0q
1r
0s
0t
0v
1w
0x
0y
0{
1|
0}
0!"
0#"
1$"
0%"
0&"
0("
1)"
0*"
0+"
0-"
1."
0/"
00"
02"
13"
04"
05"
07"
18"
09"
b0000000000000000 :"
b1111111111111111 ;"
b1111111111111111 ="
b1111111111111111 ?"
b1111111111111111 @"
b1111111111111111 A"
1C"
#27000000
#28000000
1$
1(
0)
0*
b0000000000000001 +
b1111111111111111 .
b1111111111111111 0
b1111111111111110 1
b1111111111111110 2
b0000000000000001 3
1:
b1111111111111111 <
b1111111111111111 @
b1111111111111111 B
b1111111111111111 C
b1111111111111110 E
b111111111111111 F
1G
0J
1K
1L
1N
1O
1P
1Q
1S
1T
1U
1V
1X
1Y
1Z
1[
1]
1^
1_
1`
1b
1c
1d
1e
1g
1h
1i
1j
1l
1m
1n
1o
1q
1r
1s
1t
1v
1w
1x
1y
1{
1|
1}
1!"
1#"
1$"
1%"
1&"
1("
1)"
1*"
1+"
1-"
1."
1/"
10"
12"
13"
14"
15"
17"
18"
19"
b1111111111111111 :"
b1111111111111110 ;"
b1111111111111110 ="
1>"
b1111111111111110 ?"
b0000000000000001 @"
b0000000000000001 A"
0B"
0C"
#29000000
#30000000
0$
1&
1*
b1111111111111111 +
b0000000000000000 .
b0000000000000000 /
b0000000000000000 0
b0000000000000000 1
b0000000000000000 2
b1111111111111111 3
0:
b0000000000000000 <
1=
b0000000000000000 ?
b0000000000000000 @
b0000000000000000 A
b0000000000000000 B
b0000000000000000 C
b0000000000000000 D
b0000000000000000 E
b000000000000000 F
0G
0H
0K
0L
0M
0N
0O
0P
0Q
0R
0S
0T
0U
0V
0W
0X
0Y
0Z
0[
0\
0]
0^
0_
0`
0a
0b
0c
0d
0e
0f
0g
0h
0i
0j
0k
0l
0m
0n
0o
0p
0q
0r
0s
0t
0u
0v
0w
0x
0y
0z
0{
0|
0}
0!"
0""
0#"
0$"
0%"
0&"
0'"
0("
0)"
0*"
0+"
0,"
0-"
0."
0/"
00"
01"
02"
03"
04"
05"
06"
07"
08"
09"
b0000000000000000 :"
b0000000000000000 ;"
b0000000000000000 ="
b0000000000000000 ?"
b1111111111111111 @"
b1111111111111111 A"
1C"
#31000000
#32000000
0&
0'
0(
1)
0*
b0000000000000000 +
b1111111111111111 /
b1111111111111111 1
b0000000000000000 3
0=
b1111111111111111 ?
b1111111111111111 A
b1111111111111111 D
b1111111111111111 E
1H
1J
1M
1O
1R
1T
1W
1Y
1\
1^
1a
1c
1f
1h
1k
1m
1p
1r
1u
1w
1z
1|
1""
1$"
1'"
1)"
1,"
1."
11"
13"
16"
18"
b1111111111111111 ;"
0<"
0>"
b0000000000000000 @"
b0000000000000000 A"
1B"
0C"
#33000000
#34000000
1$
1&
1(
0)
1*
b1111111111111111 +
b1111111111111111 .
b0000000000000000 /
b1111111111111111 3
1:
b1111111111111111 <
1=
b0000000000000000 ?
b1111111111111111 @
b0000000000000000 A
b1111111111111111 C
b0000000000000000 D
1G
0H
1L
0M
1Q
0R
1V
0W
1[
0\
1`
0a
1e
0f
1j
0k
1o
0p
1t
0u
1y
0z
1!"
0""
1&"
0'"
1+"
0,"
10"
01"
15"
06"
1>"
b1111111111111111 @"
b1111111111111111 A"
0B"
1C"
